/* XPM */
static char * aaaAPP_ICON48_xpm[] = {
"48 48 4 1",
"B c #000055",
"W c #ffffff",
"Y c #ffff00",
"G c #666666",
"BBBBBBBBBBBBBBBBBBBBBBBBBBBBBBYYYYYYYYYYYYYYYYYY",
"GGGGGGGGGGGGGGGGGGGGGGGGGGGGGGYYYYYYYYYYYYYYYYYY",
"BBBBBBBBBBBBBBBBBBBBYYYYBBBBBBYYYYYYYYYYYYYYYYYY",
"BBBBBBBBBBBBBBBYYYYYYYYYYBBBBBBYYYYYYYYYYYYYYYYY",
"BBBBBBBBBBBYYYYYYYYYYYYYYBBBBBBYYYYYYYYYYYYYYYYY",
"GGGGGGGYYYYYYYYYYYYYYYYYYGGGGGGYYYYYYYYYYYYYYYYY",
"BBBBBBYYYYYYYYYYYYYYYYYYBBBBBBBBYYYYYYYYYYYYYYYY",
"BBBBBBYYYYYYYYYYYYYYYBBBBBBBBBBBBYYYYYYYYYYYYYYY",
"BBBBBBYYYYYYYYYYBBBBBBBBBBBBBBBBBYYYYYYYYYYYYYYY",
"GGGGGGGYYYYGGGGGGGGGGGGGGGGGGGGGGGYYYYYYYYYYYYYY",
"BBBBBBBBBBBBBBBBBBBBBBBBBBBBYYYBBBBBYYYYYYYYYYYY",
"BBBBBBBBBBBBBBBBBBBBBBBBBBBYYYYYBBBBBYYYYYYYYYYY",
"BBBBBBBBBBBBBBBBBBBBBBBBBYYYYYYYBBBBBBBYYYYYYYYY",
"GGGGGGGGGGGGGGGGGGGGGGGGYYYYYYYYGGGGGGGGGGYYYYYY",
"BBBBBBBBBBBBBBBBBBBBBBBYYYYYYYYBBBBBBBBBBBBBBBBB",
"BBBBBBBBBBBBBBBBBBBBBYYYYYYYYYBBBBBBBBBBBBBBBBBB",
"BBBBBBBBBBBBBBBBBBBBYYYYYYYYBBBBBBBBBBBBBBBBBBBB",
"GGGGGGGGGGGGGGGGGGYYYYYYYYYGGGGGGGGGGGYYYGGGGGGG",
"BBBBBBBBBBBBBBBBBYYYYYYYYYBBBBBBBBBBBYYYYYBBBBBB",
"BBBBBBBBBBBBBBBBYYYYYYYYBBBBBBBBBBBBBYYYYYBBBBBB",
"BBBBBBBBBBBBBBBBYYYYYYYBBBBBBBBBBBBBYYYYYYBBBBBB",
"GGGGGGGGGGGGGGGGYYYYYGGGGGGGGGGGGGGGYYYYYGGGGGGG",
"BBBBBBBBBBBBBBBBBYYYBBBBBBBBBBBBBBBYYYYYYBBBBBBB",
"BBBBBBBBBBBBBBBBBBBBBBBBBBBBBBBBBBBYYYYYYBBBBBBB",
"BBBBBBBBBBBBBBBBBBBBBBBBBBBBBBBBBBBYYYYYBBBBBBBB",
"GGGGGGGGGGGGGGGGGGGGGGGGGGGGGGGGGGYYYYYYGGGGGGGG",
"BBBBBBBBBBBBBBBBBBBBBBBBBBBBBBBBBBYYYYYBBBBBBBBB",
"BBBBBBBBBBBBBBBBBBBBBBBBBBBBBBBBBYYYYYYBBBBBBBBB",
"BBBBBBBBBBBBBBBBBBBBBBBBBBBBBBBBBYYYYYBBBBBBBBBB",
"GGGGGGGGGGGGGGGGGGGGGGGGGGGGGGGGGYYYYYGGGGGGGGGG",
"BBBBBBBBBBBBBBBBBBBBBBBBBBBBBBBBBBYYYBBBBBBBBBBB",
"BBBBBBBBBBBBBBBBBBBBBBBBBBBBBBBBBBBBBBBBBBBBBBBB",
"BBBBBBBBBBBBBBBBBBBBBBBBBBBBBBBBBBBBBBBBBBBBBBBB",
"GGGGGGGGGGGGGGGGGGGGGGGGGGGGGGGGGGGGGGGGGGGGGGGG",
"BBBBBBBBBBBBBBBBBBBBBBBBBBBBBBBBBBBBBBBBBBBBBBBB",
"BBBBBBBBBBBBBBBBBBBBBBBBBBBBBBBBBBBBBBBBBBBBBBBB",
"BBBBBBWWWWBBBBBBWWBBBBBBWWWBBBBWWWWWWWBBBBBBBBBB",
"BBBBWWWBBWWBBBBWWWBBBBBWWWWBBWWWWBBBBWWBBWWWWWBB",
"BBBWWBBBBBWBBWWBBBWBBBWWBBBWWWBBWWBBBWWWWWBBBWWB",
"BBWWBBBBBBBBWWBBBWBBBWWBBBWBBBBBWBBBWWWBBWWWWWWB",
"BBBWWWWBBBBBWBBBWWBBBWBBBWWBBBBWWWWWWBWWWWBBBBWB",
"BBBBBBWWWBBWWBBWWBBBWWBBWWBBBBBWBBBBBBBBWWBBBWWB",
"BBBBBBBBWWWWBBWWWWWWWBBWWWWWWBWWBBBBBBBWWBBWWWBB",
"BBBBBBWWWBWWWWBBWWBBWWWBBWWBBBWBBBBBBBWWWWWWBBBB",
"BBBWWWWBBBBWWBBBBBBBWWBBBBBBBWWBBBBBBBBBBBBBBBBB",
"BWWWWBBBBBBBBBBBBBBBBBBBBBBBBBBBBBBBBBBBBBBBBBBB",
"BBBBBBBBBBBBBBBBBBBBBBBBBBBBBBBBBBBBBBBBBBBBBBBB",
"BBBBBBBBBBBBBBBBBBBBBBBBBBBBBBBBBBBBBBBBBBBBBBBB"
};

static char * saapdicon_xpm[] = {
"32 32 4 1",
"B c #000055",
"L c #00A0EE",
"Y c #ffff00",
"G c #666666",
"LYYYYYYYYYYYYYYYYYYYYYYYYYYYYYYL",
"LYYYYYYBBBYBBBYBBBYBBBYBBYYYYYYL",
"LYYYYYYBYYYBYBYBYBYBYBYBYBYYYYYL",
"LYYYYYYBBBYBBBYBBBYBBBYBYBYYYYYL",
"LYYYYYYYYBYBYBYBYYYBYYYBYBYYYYYL",
"LLYYYYYBBBYBYBYBYYYBYYYBBYYYYYLL",
"LLLYYYYYYYYYYYYYYYYYYYYYYYYYYLLL",
"LLLYYYYYYYYYYYYYYYYYYYYYYYYYYLLL",
"LLLLLYYYYYYYYYYYYYYYYYYYYYYLLLLL",
"LLLLLLYYYYYYYYYYYYYYYYYYYYLLLLLL",
"LLLLLLLLYYYYYYYYYYYYYYYYLLLLLLLL",
"LLLLLLLLLLLLYYYYYYYYLLLLLLLLLLLL",
"LLLLLLLLLLLLLLLLLLLLLLLLLLLLLLLL",
"LLLLLLLLLLLLLLLLLLLLLLLLLLLLLLLL",
"LLLLLLLLLLLLLLLLLLLLLLLLLLLLLLLL",
"LLLLLLLLLLLLLLLLLLLLLLLLLLLLLLLL",
"LLLLLLLLLLLLLLLLLLLLLLLLLLLLLLLL",
"LLLLLLLLLLLLLLLLLLLLLLLLLLLLLLLL",
"BBGBBBBBBBBBBBBBBBBBBBBBBBBBBGBB",
"BGGGBBBBBBBBBBBBBBBBBBBBBBBBGGGB",
"GGGGGGGGGGGGGGGGGGGGGGGGGGGGGGGG",
"BGGGBBBBBBBBBBBBBBBBBBBBBBBBGGGB",
"BBGBBBBBBBBBBBBBBBBBBBBBBBBBBGBB",
"BBGBBBBBBBBBBBBBBBBBBBBBBBBBBGBB",
"BGGGBBBBBBBBBBBBBBBBBBBBBBBBGGGB",
"GGGGGGGGGGGGGGGGGGGGGGGGGGGGGGGG",
"BGGGBBBBBBBBBBBBBBBBBBBBBBBBGGGB",
"BBGBBBBBBBBBBBBBBBBBBBBBBBBBBGBB",
"BBGBBBBBBBBBBBBBBBBBBBBBBBBBBGBB",
"BGGGBBBBBBBBBBBBBBBBBBBBBBBBGGGB",
"GGGGGGGGGGGGGGGGGGGGGGGGGGGGGGGG",
"BGGGBBBBBBBBBBBBBBBBBBBBBBBBGGGB"
};

static char * aaaAPP_ICON_xpm[] = {
"16 16 4 1",
"B c #000055",
"L c #00A0EE",
"Y c #ffff00",
"O c #ff8000",
"YYYYYYYYYYYYYYYY",
"YYYYYYYYYYYYYYYY",
"YYYYYYYYYYYYYYYY",
"LYYYYYYYYYYYYYYL",
"LLYYYYYYYYYYYYLL",
"LLLYYYYYYYYYYLLL",
"LLLLLYYYYYYLLLLL",
"LLLLLLLLLLLLLLLL",
"LLLLLLLLLLLLLLLL",
"LLLLLLLLLLLLLLLL",
"BBBOOOBBBOOOBBLL",
"BLLOLOBLBOLOBLBL",
"BBBOOOBBBOOOBLBL",
"LLBOLOBLLOLLBLBL",
"BBBOLOBLLOLLBBLL",
"LLLLLLLLLLLLLLLL"
};